{
  "v": "4.10.1",
  "fr": 120,
  "ip": 0,
  "op": 68,
  "w": 500,
  "h": 500,
  "nm": "Loading01",
  "ddd": 0,
  "assets": [],
  "layers": [
    {
      "ddd": 0,
      "ind": 1,
      "ty": 4,
      "nm": "right",
      "sr": 1,
      "ks": {
        "o": {
          "a": 0,
          "k": 100,
          "ix": 11
        },
        "r": {
          "a": 0,
          "k": 0,
          "ix": 10
        },
        "p": {
          "a": 1,
          "k": [
            {
              "i": {
                "x": 0.667,
                "y": 1
              },
              "o": {
                "x": 0.167,
                "y": 0
              },
              "n": "0p667_1_0p167_0",
              "t": 0,
              "s": [
                350,
                267.5,
                0
              ],
              "e": [
                350,
                279.5,
                0
              ],
              "to": [
                0,
                7.25,
                0
              ],
              "ti": [
                0,
                0,
                0
              ]
            },
            {
              "i": {
                "x": 0.833,
                "y": 1
              },
              "o": {
                "x": 0.167,
                "y": 0
              },
              "n": "0p833_1_0p167_0",
              "t": 4,
              "s": [
                350,
                279.5,
                0
              ],
              "e": [
                350,
                277.531,
                0
              ],
              "to": [
                0,
                0,
                0
              ],
              "ti": [
                0,
                0,
                0
              ]
            },
            {
              "i": {
                "x": 0.833,
                "y": 1
              },
              "o": {
                "x": 0.333,
                "y": 0
              },
              "n": "0p833_1_0p333_0",
              "t": 12,
              "s": [
                350,
                277.531,
                0
              ],
              "e": [
                350,
                279.5,
                0
              ],
              "to": [
                0,
                0,
                0
              ],
              "ti": [
                0,
                5.66666650772095,
                0
              ]
            },
            {
              "i": {
                "x": 0.667,
                "y": 0.636
              },
              "o": {
                "x": 0.333,
                "y": 0
              },
              "n": "0p667_0p636_0p333_0",
              "t": 24,
              "s": [
                350,
                279.5,
                0
              ],
              "e": [
                350,
                261.431,
                0
              ],
              "to": [
                0,
                -2.25015735626221,
                0
              ],
              "ti": [
                0,
                5.21673536300659,
                0
              ]
            },
            {
              "i": {
                "x": 0.667,
                "y": 0.758
              },
              "o": {
                "x": 0.333,
                "y": 0.297
              },
              "n": "0p667_0p758_0p333_0p297",
              "t": 32,
              "s": [
                350,
                261.431,
                0
              ],
              "e": [
                350,
                250.369,
                0
              ],
              "to": [
                0,
                -3.46021461486816,
                0
              ],
              "ti": [
                0,
                2.63416910171509,
                0
              ]
            },
            {
              "i": {
                "x": 0.667,
                "y": 0.875
              },
              "o": {
                "x": 0.333,
                "y": 0.316
              },
              "n": "0p667_0p875_0p333_0p316",
              "t": 36,
              "s": [
                350,
                250.369,
                0
              ],
              "e": [
                350,
                241.917,
                0
              ],
              "to": [
                0,
                -2.70694088935852,
                0
              ],
              "ti": [
                0,
                1.661465883255,
                0
              ]
            },
            {
              "i": {
                "x": 0.667,
                "y": 1
              },
              "o": {
                "x": 0.333,
                "y": 0.195
              },
              "n": "0p667_1_0p333_0p195",
              "t": 40,
              "s": [
                350,
                241.917,
                0
              ],
              "e": [
                350,
                236.5,
                0
              ],
              "to": [
                0,
                -0.42275708913803,
                0
              ],
              "ti": [
                0,
                0.53373509645462,
                0
              ]
            },
            {
              "i": {
                "x": 0.67,
                "y": 0
              },
              "o": {
                "x": 0.333,
                "y": 0
              },
              "n": "0p67_0_0p333_0",
              "t": 44,
              "s": [
                350,
                236.5,
                0
              ],
              "e": [
                350,
                233.124,
                0
              ],
              "to": [
                0,
                -3.18348479270935,
                0
              ],
              "ti": [
                0,
                1.5430201292038,
                0
              ]
            },
            {
              "i": {
                "x": 0.667,
                "y": 1
              },
              "o": {
                "x": 0.333,
                "y": 0.728
              },
              "n": "0p667_1_0p333_0p728",
              "t": 48,
              "s": [
                350,
                233.124,
                0
              ],
              "e": [
                350,
                234,
                0
              ],
              "to": [
                0,
                -2.21336841583252,
                0
              ],
              "ti": [
                0,
                -4.02638959884644,
                0
              ]
            },
            {
              "i": {
                "x": 0.667,
                "y": 0.193
              },
              "o": {
                "x": 0.333,
                "y": 0
              },
              "n": "0p667_0p193_0p333_0",
              "t": 52,
              "s": [
                350,
                234,
                0
              ],
              "e": [
                350,
                243.076,
                0
              ],
              "to": [
                0,
                2.32772064208984,
                0
              ],
              "ti": [
                0,
                -5.79988861083984,
                0
              ]
            },
            {
              "i": {
                "x": 0.667,
                "y": 0.184
              },
              "o": {
                "x": 0.333,
                "y": 0.699
              },
              "n": "0p667_0p184_0p333_0p699",
              "t": 60,
              "s": [
                350,
                243.076,
                0
              ],
              "e": [
                350,
                248.313,
                0
              ],
              "to": [
                0,
                3.6419529914856,
                0
              ],
              "ti": [
                0,
                -4.30222129821777,
                0
              ]
            },
            {
              "i": {
                "x": 0.667,
                "y": 0.427
              },
              "o": {
                "x": 0.333,
                "y": 0.481
              },
              "n": "0p667_0p427_0p333_0p481",
              "t": 64,
              "s": [
                350,
                248.313,
                0
              ],
              "e": [
                350,
                257.195,
                0
              ],
              "to": [
                0,
                4.00384187698364,
                0
              ],
              "ti": [
                0,
                -5.26819562911987,
                0
              ]
            },
            {
              "t": 68
            }
          ],
          "ix": 2
        },
        "a": {
          "a": 0,
          "k": [
            -25,
            60,
            0
          ],
          "ix": 1
        },
        "s": {
          "a": 1,
          "k": [
            {
              "i": {
                "x": [
                  0.569,
                  0.569,
                  0.569
                ],
                "y": [
                  -0.787,
                  -0.053,
                  1
                ]
              },
              "o": {
                "x": [
                  0.203,
                  0.203,
                  0.203
                ],
                "y": [
                  0,
                  0,
                  0
                ]
              },
              "n": [
                "0p569_-0p787_0p203_0",
                "0p569_-0p053_0p203_0",
                "0p569_1_0p203_0"
              ],
              "t": 0,
              "s": [
                50,
                56,
                100
              ],
              "e": [
                52.185,
                51.737,
                100
              ]
            },
            {
              "i": {
                "x": [
                  0.658,
                  0.658,
                  0.658
                ],
                "y": [
                  0.051,
                  0.427,
                  1
                ]
              },
              "o": {
                "x": [
                  0.312,
                  0.312,
                  0.312
                ],
                "y": [
                  0.724,
                  0.487,
                  0
                ]
              },
              "n": [
                "0p658_0p051_0p312_0p724",
                "0p658_0p427_0p312_0p487",
                "0p658_1_0p312_0"
              ],
              "t": 4,
              "s": [
                52.185,
                51.737,
                100
              ],
              "e": [
                56.089,
                45.055,
                100
              ]
            },
            {
              "i": {
                "x": [
                  0.667,
                  0.667,
                  0.667
                ],
                "y": [
                  1,
                  1,
                  1
                ]
              },
              "o": {
                "x": [
                  0.351,
                  0.351,
                  0.351
                ],
                "y": [
                  0,
                  0,
                  0
                ]
              },
              "n": [
                "0p667_1_0p351_0",
                "0p667_1_0p351_0",
                "0p667_1_0p351_0"
              ],
              "t": 8,
              "s": [
                56.089,
                45.055,
                100
              ],
              "e": [
                65,
                40,
                100
              ]
            },
            {
              "i": {
                "x": [
                  0.648,
                  0.648,
                  0.648
                ],
                "y": [
                  0.813,
                  0.644,
                  1
                ]
              },
              "o": {
                "x": [
                  0.307,
                  0.307,
                  0.307
                ],
                "y": [
                  0,
                  0,
                  0
                ]
              },
              "n": [
                "0p648_0p813_0p307_0",
                "0p648_0p644_0p307_0",
                "0p648_1_0p307_0"
              ],
              "t": 12,
              "s": [
                65,
                40,
                100
              ],
              "e": [
                59.233,
                41.885,
                100
              ]
            },
            {
              "i": {
                "x": [
                  0.668,
                  0.668,
                  0.668
                ],
                "y": [
                  0.746,
                  0.806,
                  1
                ]
              },
              "o": {
                "x": [
                  0.329,
                  0.329,
                  0.329
                ],
                "y": [
                  0.536,
                  0.187,
                  0
                ]
              },
              "n": [
                "0p668_0p746_0p329_0p536",
                "0p668_0p806_0p329_0p187",
                "0p668_1_0p329_0"
              ],
              "t": 16,
              "s": [
                59.233,
                41.885,
                100
              ],
              "e": [
                57.351,
                45.233,
                100
              ]
            },
            {
              "i": {
                "x": [
                  0.687,
                  0.687,
                  0.687
                ],
                "y": [
                  0.425,
                  0.552,
                  1
                ]
              },
              "o": {
                "x": [
                  0.347,
                  0.347,
                  0.347
                ],
                "y": [
                  0.195,
                  0.094,
                  0
                ]
              },
              "n": [
                "0p687_0p425_0p347_0p195",
                "0p687_0p552_0p347_0p094",
                "0p687_1_0p347_0"
              ],
              "t": 20,
              "s": [
                57.351,
                45.233,
                100
              ],
              "e": [
                54.789,
                52.464,
                100
              ]
            },
            {
              "i": {
                "x": [
                  0.793,
                  0.793,
                  0.793
                ],
                "y": [
                  1,
                  1,
                  1
                ]
              },
              "o": {
                "x": [
                  0.43,
                  0.43,
                  0.43
                ],
                "y": [
                  0.424,
                  0.307,
                  0
                ]
              },
              "n": [
                "0p793_1_0p43_0p424",
                "0p793_1_0p43_0p307",
                "0p793_1_0p43_0"
              ],
              "t": 24,
              "s": [
                54.789,
                52.464,
                100
              ],
              "e": [
                50,
                67,
                100
              ]
            },
            {
              "i": {
                "x": [
                  0.575,
                  0.575,
                  0.575
                ],
                "y": [
                  1,
                  1,
                  1
                ]
              },
              "o": {
                "x": [
                  0.171,
                  0.171,
                  0.171
                ],
                "y": [
                  0,
                  0,
                  0
                ]
              },
              "n": [
                "0p575_1_0p171_0",
                "0p575_1_0p171_0",
                "0p575_1_0p171_0"
              ],
              "t": 28,
              "s": [
                50,
                67,
                100
              ],
              "e": [
                50,
                67,
                100
              ]
            },
            {
              "i": {
                "x": [
                  0.677,
                  0.677,
                  0.677
                ],
                "y": [
                  1,
                  10.303,
                  1
                ]
              },
              "o": {
                "x": [
                  0.335,
                  0.335,
                  0.335
                ],
                "y": [
                  0,
                  0,
                  0
                ]
              },
              "n": [
                "0p677_1_0p335_0",
                "0p677_10p303_0p335_0",
                "0p677_1_0p335_0"
              ],
              "t": 52,
              "s": [
                50,
                67,
                100
              ],
              "e": [
                50,
                67.127,
                100
              ]
            },
            {
              "i": {
                "x": [
                  0.684,
                  0.684,
                  0.684
                ],
                "y": [
                  1,
                  1,
                  1
                ]
              },
              "o": {
                "x": [
                  0.347,
                  0.347,
                  0.347
                ],
                "y": [
                  0,
                  0.154,
                  0
                ]
              },
              "n": [
                "0p684_1_0p347_0",
                "0p684_1_0p347_0p154",
                "0p684_1_0p347_0"
              ],
              "t": 60,
              "s": [
                50,
                67.127,
                100
              ],
              "e": [
                50,
                63,
                100
              ]
            },
            {
              "t": 64
            }
          ],
          "ix": 6
        }
      },
      "ao": 0,
      "shapes": [
        {
          "ty": "gr",
          "it": [
            {
              "d": 1,
              "ty": "el",
              "s": {
                "a": 0,
                "k": [
                  110,
                  110
                ],
                "ix": 2
              },
              "p": {
                "a": 0,
                "k": [
                  0,
                  0
                ],
                "ix": 3
              },
              "nm": "Ellipse Path 1",
              "mn": "ADBE Vector Shape - Ellipse",
              "hd": false
            },
            {
              "ty": "fl",
              "c": {
                "a": 0,
                "k": [
                  0.49,
                  0.2,
                  0.627,
                  1
                ],
                "ix": 4
              },
              "o": {
                "a": 0,
                "k": 100,
                "ix": 5
              },
              "r": 1,
              "nm": "Fill 1",
              "mn": "ADBE Vector Graphic - Fill",
              "hd": false
            },
            {
              "ty": "tr",
              "p": {
                "a": 0,
                "k": [
                  -25,
                  5
                ],
                "ix": 2
              },
              "a": {
                "a": 0,
                "k": [
                  0,
                  0
                ],
                "ix": 1
              },
              "s": {
                "a": 0,
                "k": [
                  100,
                  100
                ],
                "ix": 3
              },
              "r": {
                "a": 0,
                "k": 0,
                "ix": 6
              },
              "o": {
                "a": 0,
                "k": 100,
                "ix": 7
              },
              "sk": {
                "a": 0,
                "k": 0,
                "ix": 4
              },
              "sa": {
                "a": 0,
                "k": 0,
                "ix": 5
              },
              "nm": "Transform"
            }
          ],
          "nm": "Ellipse 1",
          "np": 3,
          "cix": 2,
          "ix": 1,
          "mn": "ADBE Vector Group",
          "hd": false
        }
      ],
      "ip": 0,
      "op": 612,
      "st": 12,
      "bm": 0
    },
    {
      "ddd": 0,
      "ind": 2,
      "ty": 4,
      "nm": "center",
      "sr": 1,
      "ks": {
        "o": {
          "a": 0,
          "k": 100,
          "ix": 11
        },
        "r": {
          "a": 0,
          "k": 0,
          "ix": 10
        },
        "p": {
          "a": 1,
          "k": [
            {
              "i": {
                "x": 0.667,
                "y": 0.636
              },
              "o": {
                "x": 0.333,
                "y": 0
              },
              "n": "0p667_0p636_0p333_0",
              "t": 12,
              "s": [
                250,
                279.5,
                0
              ],
              "e": [
                250,
                261.431,
                0
              ],
              "to": [
                0,
                -2.25015735626221,
                0
              ],
              "ti": [
                0,
                5.21673536300659,
                0
              ]
            },
            {
              "i": {
                "x": 0.667,
                "y": 0.758
              },
              "o": {
                "x": 0.333,
                "y": 0.297
              },
              "n": "0p667_0p758_0p333_0p297",
              "t": 20,
              "s": [
                250,
                261.431,
                0
              ],
              "e": [
                250,
                250.369,
                0
              ],
              "to": [
                0,
                -3.46021461486816,
                0
              ],
              "ti": [
                0,
                2.63416910171509,
                0
              ]
            },
            {
              "i": {
                "x": 0.667,
                "y": 0.875
              },
              "o": {
                "x": 0.333,
                "y": 0.316
              },
              "n": "0p667_0p875_0p333_0p316",
              "t": 24,
              "s": [
                250,
                250.369,
                0
              ],
              "e": [
                250,
                241.917,
                0
              ],
              "to": [
                0,
                -2.70694088935852,
                0
              ],
              "ti": [
                0,
                1.661465883255,
                0
              ]
            },
            {
              "i": {
                "x": 0.667,
                "y": 1
              },
              "o": {
                "x": 0.333,
                "y": 0.195
              },
              "n": "0p667_1_0p333_0p195",
              "t": 28,
              "s": [
                250,
                241.917,
                0
              ],
              "e": [
                250,
                236.5,
                0
              ],
              "to": [
                0,
                -0.42275708913803,
                0
              ],
              "ti": [
                0,
                0.53373509645462,
                0
              ]
            },
            {
              "i": {
                "x": 0.67,
                "y": 0
              },
              "o": {
                "x": 0.333,
                "y": 0
              },
              "n": "0p67_0_0p333_0",
              "t": 32,
              "s": [
                250,
                236.5,
                0
              ],
              "e": [
                250,
                233.124,
                0
              ],
              "to": [
                0,
                -3.18348479270935,
                0
              ],
              "ti": [
                0,
                1.5430201292038,
                0
              ]
            },
            {
              "i": {
                "x": 0.667,
                "y": 1
              },
              "o": {
                "x": 0.333,
                "y": 0.728
              },
              "n": "0p667_1_0p333_0p728",
              "t": 36,
              "s": [
                250,
                233.124,
                0
              ],
              "e": [
                250,
                234,
                0
              ],
              "to": [
                0,
                -2.21336841583252,
                0
              ],
              "ti": [
                0,
                -4.02638959884644,
                0
              ]
            },
            {
              "i": {
                "x": 0.667,
                "y": 0.193
              },
              "o": {
                "x": 0.333,
                "y": 0
              },
              "n": "0p667_0p193_0p333_0",
              "t": 40,
              "s": [
                250,
                234,
                0
              ],
              "e": [
                250,
                243.076,
                0
              ],
              "to": [
                0,
                2.32772064208984,
                0
              ],
              "ti": [
                0,
                -5.79988861083984,
                0
              ]
            },
            {
              "i": {
                "x": 0.667,
                "y": 0.184
              },
              "o": {
                "x": 0.333,
                "y": 0.699
              },
              "n": "0p667_0p184_0p333_0p699",
              "t": 48,
              "s": [
                250,
                243.076,
                0
              ],
              "e": [
                250,
                248.313,
                0
              ],
              "to": [
                0,
                3.6419529914856,
                0
              ],
              "ti": [
                0,
                -4.30222129821777,
                0
              ]
            },
            {
              "i": {
                "x": 0.667,
                "y": 0.427
              },
              "o": {
                "x": 0.333,
                "y": 0.481
              },
              "n": "0p667_0p427_0p333_0p481",
              "t": 52,
              "s": [
                250,
                248.313,
                0
              ],
              "e": [
                250,
                257.195,
                0
              ],
              "to": [
                0,
                4.00384187698364,
                0
              ],
              "ti": [
                0,
                -5.26819562911987,
                0
              ]
            },
            {
              "i": {
                "x": 0.667,
                "y": 1
              },
              "o": {
                "x": 0.333,
                "y": 0.494
              },
              "n": "0p667_1_0p333_0p494",
              "t": 56,
              "s": [
                250,
                257.195,
                0
              ],
              "e": [
                250,
                267.5,
                0
              ],
              "to": [
                0,
                6.52062654495239,
                0
              ],
              "ti": [
                0,
                -1.78633368015289,
                0
              ]
            },
            {
              "i": {
                "x": 0.667,
                "y": 1
              },
              "o": {
                "x": 0.167,
                "y": 0
              },
              "n": "0p667_1_0p167_0",
              "t": 60,
              "s": [
                250,
                267.5,
                0
              ],
              "e": [
                250,
                279.5,
                0
              ],
              "to": [
                0,
                7.25,
                0
              ],
              "ti": [
                0,
                0,
                0
              ]
            },
            {
              "t": 64
            }
          ],
          "ix": 2
        },
        "a": {
          "a": 0,
          "k": [
            -25,
            60,
            0
          ],
          "ix": 1
        },
        "s": {
          "a": 1,
          "k": [
            {
              "i": {
                "x": [
                  0.648,
                  0.648,
                  0.648
                ],
                "y": [
                  0.813,
                  0.644,
                  1
                ]
              },
              "o": {
                "x": [
                  0.307,
                  0.307,
                  0.307
                ],
                "y": [
                  0,
                  0,
                  0
                ]
              },
              "n": [
                "0p648_0p813_0p307_0",
                "0p648_0p644_0p307_0",
                "0p648_1_0p307_0"
              ],
              "t": 0,
              "s": [
                65,
                40,
                100
              ],
              "e": [
                59.233,
                41.885,
                100
              ]
            },
            {
              "i": {
                "x": [
                  0.668,
                  0.668,
                  0.668
                ],
                "y": [
                  0.746,
                  0.806,
                  1
                ]
              },
              "o": {
                "x": [
                  0.329,
                  0.329,
                  0.329
                ],
                "y": [
                  0.536,
                  0.187,
                  0
                ]
              },
              "n": [
                "0p668_0p746_0p329_0p536",
                "0p668_0p806_0p329_0p187",
                "0p668_1_0p329_0"
              ],
              "t": 4,
              "s": [
                59.233,
                41.885,
                100
              ],
              "e": [
                57.351,
                45.233,
                100
              ]
            },
            {
              "i": {
                "x": [
                  0.687,
                  0.687,
                  0.687
                ],
                "y": [
                  0.425,
                  0.552,
                  1
                ]
              },
              "o": {
                "x": [
                  0.347,
                  0.347,
                  0.347
                ],
                "y": [
                  0.195,
                  0.094,
                  0
                ]
              },
              "n": [
                "0p687_0p425_0p347_0p195",
                "0p687_0p552_0p347_0p094",
                "0p687_1_0p347_0"
              ],
              "t": 8,
              "s": [
                57.351,
                45.233,
                100
              ],
              "e": [
                54.789,
                52.464,
                100
              ]
            },
            {
              "i": {
                "x": [
                  0.793,
                  0.793,
                  0.793
                ],
                "y": [
                  1,
                  1,
                  1
                ]
              },
              "o": {
                "x": [
                  0.43,
                  0.43,
                  0.43
                ],
                "y": [
                  0.424,
                  0.307,
                  0
                ]
              },
              "n": [
                "0p793_1_0p43_0p424",
                "0p793_1_0p43_0p307",
                "0p793_1_0p43_0"
              ],
              "t": 12,
              "s": [
                54.789,
                52.464,
                100
              ],
              "e": [
                50,
                67,
                100
              ]
            },
            {
              "i": {
                "x": [
                  0.575,
                  0.575,
                  0.575
                ],
                "y": [
                  1,
                  1,
                  1
                ]
              },
              "o": {
                "x": [
                  0.171,
                  0.171,
                  0.171
                ],
                "y": [
                  0,
                  0,
                  0
                ]
              },
              "n": [
                "0p575_1_0p171_0",
                "0p575_1_0p171_0",
                "0p575_1_0p171_0"
              ],
              "t": 16,
              "s": [
                50,
                67,
                100
              ],
              "e": [
                50,
                67,
                100
              ]
            },
            {
              "i": {
                "x": [
                  0.677,
                  0.677,
                  0.677
                ],
                "y": [
                  1,
                  10.303,
                  1
                ]
              },
              "o": {
                "x": [
                  0.335,
                  0.335,
                  0.335
                ],
                "y": [
                  0,
                  0,
                  0
                ]
              },
              "n": [
                "0p677_1_0p335_0",
                "0p677_10p303_0p335_0",
                "0p677_1_0p335_0"
              ],
              "t": 40,
              "s": [
                50,
                67,
                100
              ],
              "e": [
                50,
                67.127,
                100
              ]
            },
            {
              "i": {
                "x": [
                  0.684,
                  0.684,
                  0.684
                ],
                "y": [
                  1,
                  1,
                  1
                ]
              },
              "o": {
                "x": [
                  0.347,
                  0.347,
                  0.347
                ],
                "y": [
                  0,
                  0.154,
                  0
                ]
              },
              "n": [
                "0p684_1_0p347_0",
                "0p684_1_0p347_0p154",
                "0p684_1_0p347_0"
              ],
              "t": 48,
              "s": [
                50,
                67.127,
                100
              ],
              "e": [
                50,
                63,
                100
              ]
            },
            {
              "i": {
                "x": [
                  0.799,
                  0.799,
                  0.799
                ],
                "y": [
                  1,
                  1,
                  1
                ]
              },
              "o": {
                "x": [
                  0.437,
                  0.437,
                  0.437
                ],
                "y": [
                  0,
                  0,
                  0
                ]
              },
              "n": [
                "0p799_1_0p437_0",
                "0p799_1_0p437_0",
                "0p799_1_0p437_0"
              ],
              "t": 52,
              "s": [
                50,
                63,
                100
              ],
              "e": [
                50,
                56,
                100
              ]
            },
            {
              "i": {
                "x": [
                  0.569,
                  0.569,
                  0.569
                ],
                "y": [
                  -0.787,
                  -0.053,
                  1
                ]
              },
              "o": {
                "x": [
                  0.203,
                  0.203,
                  0.203
                ],
                "y": [
                  0,
                  0,
                  0
                ]
              },
              "n": [
                "0p569_-0p787_0p203_0",
                "0p569_-0p053_0p203_0",
                "0p569_1_0p203_0"
              ],
              "t": 60,
              "s": [
                50,
                56,
                100
              ],
              "e": [
                52.185,
                51.737,
                100
              ]
            },
            {
              "i": {
                "x": [
                  0.658,
                  0.658,
                  0.658
                ],
                "y": [
                  0.051,
                  0.427,
                  1
                ]
              },
              "o": {
                "x": [
                  0.312,
                  0.312,
                  0.312
                ],
                "y": [
                  0.724,
                  0.487,
                  0
                ]
              },
              "n": [
                "0p658_0p051_0p312_0p724",
                "0p658_0p427_0p312_0p487",
                "0p658_1_0p312_0"
              ],
              "t": 64,
              "s": [
                52.185,
                51.737,
                100
              ],
              "e": [
                56.089,
                45.055,
                100
              ]
            },
            {
              "t": 68
            }
          ],
          "ix": 6
        }
      },
      "ao": 0,
      "shapes": [
        {
          "ty": "gr",
          "it": [
            {
              "d": 1,
              "ty": "el",
              "s": {
                "a": 0,
                "k": [
                  110,
                  110
                ],
                "ix": 2
              },
              "p": {
                "a": 0,
                "k": [
                  0,
                  0
                ],
                "ix": 3
              },
              "nm": "Ellipse Path 1",
              "mn": "ADBE Vector Shape - Ellipse",
              "hd": false
            },
            {
              "ty": "fl",
              "c": {
                "a": 0,
                "k": [
                  0.502,
                  0.227,
                  0.627,
                  1
                ],
                "ix": 4
              },
              "o": {
                "a": 0,
                "k": 100,
                "ix": 5
              },
              "r": 1,
              "nm": "Fill 1",
              "mn": "ADBE Vector Graphic - Fill",
              "hd": false
            },
            {
              "ty": "tr",
              "p": {
                "a": 0,
                "k": [
                  -25,
                  5
                ],
                "ix": 2
              },
              "a": {
                "a": 0,
                "k": [
                  0,
                  0
                ],
                "ix": 1
              },
              "s": {
                "a": 0,
                "k": [
                  100,
                  100
                ],
                "ix": 3
              },
              "r": {
                "a": 0,
                "k": 0,
                "ix": 6
              },
              "o": {
                "a": 0,
                "k": 100,
                "ix": 7
              },
              "sk": {
                "a": 0,
                "k": 0,
                "ix": 4
              },
              "sa": {
                "a": 0,
                "k": 0,
                "ix": 5
              },
              "nm": "Transform"
            }
          ],
          "nm": "Ellipse 1",
          "np": 3,
          "cix": 2,
          "ix": 1,
          "mn": "ADBE Vector Group",
          "hd": false
        }
      ],
      "ip": 0,
      "op": 600,
      "st": 0,
      "bm": 0
    },
    {
      "ddd": 0,
      "ind": 3,
      "ty": 4,
      "nm": "Left",
      "sr": 1,
      "ks": {
        "o": {
          "a": 0,
          "k": 100,
          "ix": 11
        },
        "r": {
          "a": 0,
          "k": 0,
          "ix": 10
        },
        "p": {
          "a": 1,
          "k": [
            {
              "i": {
                "x": 0.667,
                "y": 0.636
              },
              "o": {
                "x": 0.333,
                "y": 0
              },
              "n": "0p667_0p636_0p333_0",
              "t": 0,
              "s": [
                150,
                279.5,
                0
              ],
              "e": [
                150,
                261.431,
                0
              ],
              "to": [
                0,
                -2.25015735626221,
                0
              ],
              "ti": [
                0,
                5.21673536300659,
                0
              ]
            },
            {
              "i": {
                "x": 0.667,
                "y": 0.758
              },
              "o": {
                "x": 0.333,
                "y": 0.297
              },
              "n": "0p667_0p758_0p333_0p297",
              "t": 8,
              "s": [
                150,
                261.431,
                0
              ],
              "e": [
                150,
                250.369,
                0
              ],
              "to": [
                0,
                -3.46021461486816,
                0
              ],
              "ti": [
                0,
                2.63416910171509,
                0
              ]
            },
            {
              "i": {
                "x": 0.667,
                "y": 0.875
              },
              "o": {
                "x": 0.333,
                "y": 0.316
              },
              "n": "0p667_0p875_0p333_0p316",
              "t": 12,
              "s": [
                150,
                250.369,
                0
              ],
              "e": [
                150,
                241.917,
                0
              ],
              "to": [
                0,
                -2.70694088935852,
                0
              ],
              "ti": [
                0,
                1.661465883255,
                0
              ]
            },
            {
              "i": {
                "x": 0.667,
                "y": 1
              },
              "o": {
                "x": 0.333,
                "y": 0.195
              },
              "n": "0p667_1_0p333_0p195",
              "t": 16,
              "s": [
                150,
                241.917,
                0
              ],
              "e": [
                150,
                236.5,
                0
              ],
              "to": [
                0,
                -0.42275708913803,
                0
              ],
              "ti": [
                0,
                0.53373509645462,
                0
              ]
            },
            {
              "i": {
                "x": 0.67,
                "y": 0
              },
              "o": {
                "x": 0.333,
                "y": 0
              },
              "n": "0p67_0_0p333_0",
              "t": 20,
              "s": [
                150,
                236.5,
                0
              ],
              "e": [
                150,
                233.124,
                0
              ],
              "to": [
                0,
                -3.18348479270935,
                0
              ],
              "ti": [
                0,
                1.5430201292038,
                0
              ]
            },
            {
              "i": {
                "x": 0.667,
                "y": 1
              },
              "o": {
                "x": 0.333,
                "y": 0.728
              },
              "n": "0p667_1_0p333_0p728",
              "t": 24,
              "s": [
                150,
                233.124,
                0
              ],
              "e": [
                150,
                234,
                0
              ],
              "to": [
                0,
                -2.21336841583252,
                0
              ],
              "ti": [
                0,
                -4.02638959884644,
                0
              ]
            },
            {
              "i": {
                "x": 0.667,
                "y": 0.193
              },
              "o": {
                "x": 0.333,
                "y": 0
              },
              "n": "0p667_0p193_0p333_0",
              "t": 28,
              "s": [
                150,
                234,
                0
              ],
              "e": [
                150,
                243.076,
                0
              ],
              "to": [
                0,
                2.32772064208984,
                0
              ],
              "ti": [
                0,
                -5.79988861083984,
                0
              ]
            },
            {
              "i": {
                "x": 0.667,
                "y": 0.184
              },
              "o": {
                "x": 0.333,
                "y": 0.699
              },
              "n": "0p667_0p184_0p333_0p699",
              "t": 36,
              "s": [
                150,
                243.076,
                0
              ],
              "e": [
                150,
                248.313,
                0
              ],
              "to": [
                0,
                3.6419529914856,
                0
              ],
              "ti": [
                0,
                -4.30222129821777,
                0
              ]
            },
            {
              "i": {
                "x": 0.667,
                "y": 0.427
              },
              "o": {
                "x": 0.333,
                "y": 0.481
              },
              "n": "0p667_0p427_0p333_0p481",
              "t": 40,
              "s": [
                150,
                248.313,
                0
              ],
              "e": [
                150,
                257.195,
                0
              ],
              "to": [
                0,
                4.00384187698364,
                0
              ],
              "ti": [
                0,
                -5.26819562911987,
                0
              ]
            },
            {
              "i": {
                "x": 0.667,
                "y": 1
              },
              "o": {
                "x": 0.333,
                "y": 0.494
              },
              "n": "0p667_1_0p333_0p494",
              "t": 44,
              "s": [
                150,
                257.195,
                0
              ],
              "e": [
                150,
                267.5,
                0
              ],
              "to": [
                0,
                6.52062654495239,
                0
              ],
              "ti": [
                0,
                -1.78633368015289,
                0
              ]
            },
            {
              "i": {
                "x": 0.667,
                "y": 1
              },
              "o": {
                "x": 0.167,
                "y": 0
              },
              "n": "0p667_1_0p167_0",
              "t": 48,
              "s": [
                150,
                267.5,
                0
              ],
              "e": [
                150,
                279.5,
                0
              ],
              "to": [
                0,
                7.25,
                0
              ],
              "ti": [
                0,
                0,
                0
              ]
            },
            {
              "t": 52
            }
          ],
          "ix": 2
        },
        "a": {
          "a": 0,
          "k": [
            -25,
            60,
            0
          ],
          "ix": 1
        },
        "s": {
          "a": 1,
          "k": [
            {
              "i": {
                "x": [
                  0.648,
                  0.648,
                  0.648
                ],
                "y": [
                  0.813,
                  0.644,
                  1
                ]
              },
              "o": {
                "x": [
                  0.307,
                  0.307,
                  0.307
                ],
                "y": [
                  0,
                  0,
                  0
                ]
              },
              "n": [
                "0p648_0p813_0p307_0",
                "0p648_0p644_0p307_0",
                "0p648_1_0p307_0"
              ],
              "t": -12,
              "s": [
                65,
                40,
                100
              ],
              "e": [
                59.233,
                41.885,
                100
              ]
            },
            {
              "i": {
                "x": [
                  0.668,
                  0.668,
                  0.668
                ],
                "y": [
                  0.746,
                  0.806,
                  1
                ]
              },
              "o": {
                "x": [
                  0.329,
                  0.329,
                  0.329
                ],
                "y": [
                  0.536,
                  0.187,
                  0
                ]
              },
              "n": [
                "0p668_0p746_0p329_0p536",
                "0p668_0p806_0p329_0p187",
                "0p668_1_0p329_0"
              ],
              "t": -8,
              "s": [
                59.233,
                41.885,
                100
              ],
              "e": [
                57.351,
                45.233,
                100
              ]
            },
            {
              "i": {
                "x": [
                  0.687,
                  0.687,
                  0.687
                ],
                "y": [
                  0.425,
                  0.552,
                  1
                ]
              },
              "o": {
                "x": [
                  0.347,
                  0.347,
                  0.347
                ],
                "y": [
                  0.195,
                  0.094,
                  0
                ]
              },
              "n": [
                "0p687_0p425_0p347_0p195",
                "0p687_0p552_0p347_0p094",
                "0p687_1_0p347_0"
              ],
              "t": -4,
              "s": [
                57.351,
                45.233,
                100
              ],
              "e": [
                54.789,
                52.464,
                100
              ]
            },
            {
              "i": {
                "x": [
                  0.793,
                  0.793,
                  0.793
                ],
                "y": [
                  1,
                  1,
                  1
                ]
              },
              "o": {
                "x": [
                  0.43,
                  0.43,
                  0.43
                ],
                "y": [
                  0.424,
                  0.307,
                  0
                ]
              },
              "n": [
                "0p793_1_0p43_0p424",
                "0p793_1_0p43_0p307",
                "0p793_1_0p43_0"
              ],
              "t": 0,
              "s": [
                54.789,
                52.464,
                100
              ],
              "e": [
                50,
                67,
                100
              ]
            },
            {
              "i": {
                "x": [
                  0.575,
                  0.575,
                  0.575
                ],
                "y": [
                  1,
                  1,
                  1
                ]
              },
              "o": {
                "x": [
                  0.171,
                  0.171,
                  0.171
                ],
                "y": [
                  0,
                  0,
                  0
                ]
              },
              "n": [
                "0p575_1_0p171_0",
                "0p575_1_0p171_0",
                "0p575_1_0p171_0"
              ],
              "t": 4,
              "s": [
                50,
                67,
                100
              ],
              "e": [
                50,
                67,
                100
              ]
            },
            {
              "i": {
                "x": [
                  0.677,
                  0.677,
                  0.677
                ],
                "y": [
                  1,
                  10.303,
                  1
                ]
              },
              "o": {
                "x": [
                  0.335,
                  0.335,
                  0.335
                ],
                "y": [
                  0,
                  0,
                  0
                ]
              },
              "n": [
                "0p677_1_0p335_0",
                "0p677_10p303_0p335_0",
                "0p677_1_0p335_0"
              ],
              "t": 28,
              "s": [
                50,
                67,
                100
              ],
              "e": [
                50,
                67.127,
                100
              ]
            },
            {
              "i": {
                "x": [
                  0.684,
                  0.684,
                  0.684
                ],
                "y": [
                  1,
                  1,
                  1
                ]
              },
              "o": {
                "x": [
                  0.347,
                  0.347,
                  0.347
                ],
                "y": [
                  0,
                  0.154,
                  0
                ]
              },
              "n": [
                "0p684_1_0p347_0",
                "0p684_1_0p347_0p154",
                "0p684_1_0p347_0"
              ],
              "t": 36,
              "s": [
                50,
                67.127,
                100
              ],
              "e": [
                50,
                63,
                100
              ]
            },
            {
              "i": {
                "x": [
                  0.799,
                  0.799,
                  0.799
                ],
                "y": [
                  1,
                  1,
                  1
                ]
              },
              "o": {
                "x": [
                  0.437,
                  0.437,
                  0.437
                ],
                "y": [
                  0,
                  0,
                  0
                ]
              },
              "n": [
                "0p799_1_0p437_0",
                "0p799_1_0p437_0",
                "0p799_1_0p437_0"
              ],
              "t": 40,
              "s": [
                50,
                63,
                100
              ],
              "e": [
                50,
                56,
                100
              ]
            },
            {
              "i": {
                "x": [
                  0.569,
                  0.569,
                  0.569
                ],
                "y": [
                  -0.787,
                  -0.053,
                  1
                ]
              },
              "o": {
                "x": [
                  0.203,
                  0.203,
                  0.203
                ],
                "y": [
                  0,
                  0,
                  0
                ]
              },
              "n": [
                "0p569_-0p787_0p203_0",
                "0p569_-0p053_0p203_0",
                "0p569_1_0p203_0"
              ],
              "t": 48,
              "s": [
                50,
                56,
                100
              ],
              "e": [
                52.185,
                51.737,
                100
              ]
            },
            {
              "i": {
                "x": [
                  0.658,
                  0.658,
                  0.658
                ],
                "y": [
                  0.051,
                  0.427,
                  1
                ]
              },
              "o": {
                "x": [
                  0.312,
                  0.312,
                  0.312
                ],
                "y": [
                  0.724,
                  0.487,
                  0
                ]
              },
              "n": [
                "0p658_0p051_0p312_0p724",
                "0p658_0p427_0p312_0p487",
                "0p658_1_0p312_0"
              ],
              "t": 52,
              "s": [
                52.185,
                51.737,
                100
              ],
              "e": [
                56.089,
                45.055,
                100
              ]
            },
            {
              "i": {
                "x": [
                  0.667,
                  0.667,
                  0.667
                ],
                "y": [
                  1,
                  1,
                  1
                ]
              },
              "o": {
                "x": [
                  0.351,
                  0.351,
                  0.351
                ],
                "y": [
                  0.427,
                  0.779,
                  0
                ]
              },
              "n": [
                "0p667_1_0p351_0p427",
                "0p667_1_0p351_0p779",
                "0p667_1_0p351_0"
              ],
              "t": 56,
              "s": [
                56.089,
                45.055,
                100
              ],
              "e": [
                65,
                40,
                100
              ]
            },
            {
              "i": {
                "x": [
                  0.648,
                  0.648,
                  0.648
                ],
                "y": [
                  0.813,
                  0.644,
                  1
                ]
              },
              "o": {
                "x": [
                  0.307,
                  0.307,
                  0.307
                ],
                "y": [
                  0,
                  0,
                  0
                ]
              },
              "n": [
                "0p648_0p813_0p307_0",
                "0p648_0p644_0p307_0",
                "0p648_1_0p307_0"
              ],
              "t": 60,
              "s": [
                65,
                40,
                100
              ],
              "e": [
                59.233,
                41.885,
                100
              ]
            },
            {
              "i": {
                "x": [
                  0.668,
                  0.668,
                  0.668
                ],
                "y": [
                  0.746,
                  0.806,
                  1
                ]
              },
              "o": {
                "x": [
                  0.329,
                  0.329,
                  0.329
                ],
                "y": [
                  0.536,
                  0.187,
                  0
                ]
              },
              "n": [
                "0p668_0p746_0p329_0p536",
                "0p668_0p806_0p329_0p187",
                "0p668_1_0p329_0"
              ],
              "t": 64,
              "s": [
                59.233,
                41.885,
                100
              ],
              "e": [
                57.351,
                45.233,
                100
              ]
            },
            {
              "t": 68
            }
          ],
          "ix": 6
        }
      },
      "ao": 0,
      "shapes": [
        {
          "ty": "gr",
          "it": [
            {
              "d": 1,
              "ty": "el",
              "s": {
                "a": 0,
                "k": [
                  110,
                  110
                ],
                "ix": 2
              },
              "p": {
                "a": 0,
                "k": [
                  0,
                  0
                ],
                "ix": 3
              },
              "nm": "Ellipse Path 1",
              "mn": "ADBE Vector Shape - Ellipse",
              "hd": false
            },
            {
              "ty": "fl",
              "c": {
                "a": 0,
                "k": [
                  0.545,
                  0.278,
                  0.667,
                  1
                ],
                "ix": 4
              },
              "o": {
                "a": 0,
                "k": 100,
                "ix": 5
              },
              "r": 1,
              "nm": "Fill 1",
              "mn": "ADBE Vector Graphic - Fill",
              "hd": false
            },
            {
              "ty": "tr",
              "p": {
                "a": 0,
                "k": [
                  -25,
                  5
                ],
                "ix": 2
              },
              "a": {
                "a": 0,
                "k": [
                  0,
                  0
                ],
                "ix": 1
              },
              "s": {
                "a": 0,
                "k": [
                  100,
                  100
                ],
                "ix": 3
              },
              "r": {
                "a": 0,
                "k": 0,
                "ix": 6
              },
              "o": {
                "a": 0,
                "k": 100,
                "ix": 7
              },
              "sk": {
                "a": 0,
                "k": 0,
                "ix": 4
              },
              "sa": {
                "a": 0,
                "k": 0,
                "ix": 5
              },
              "nm": "Transform"
            }
          ],
          "nm": "Ellipse 1",
          "np": 3,
          "cix": 2,
          "ix": 1,
          "mn": "ADBE Vector Group",
          "hd": false
        }
      ],
      "ip": 0,
      "op": 588,
      "st": -12,
      "bm": 0
    }
  ]
}