{
  "project_info": {
    "project_number": "906508954192",
    "firebase_url": "https://gpsapp-a0ced.firebaseio.com",
    "project_id": "gpsapp-a0ced",
    "storage_bucket": "gpsapp-a0ced.appspot.com"
  },
  "client": [
    {
      "client_info": {
        "mobilesdk_app_id": "1:906508954192:android:ab7910bee5db1c08",
        "android_client_info": {
          "package_name": "com.gpsapp.anil.gps_app"
        }
      },
      "oauth_client": [
        {
          "client_id": "906508954192-idjp0uf377jskl4dt1adcu0hb4k69v21.apps.googleusercontent.com",
          "client_type": 1,
          "android_info": {
            "package_name": "com.gpsapp.anil.gps_app",
            "certificate_hash": "38e5cbe775277cc2fff0e7f6a64e833bd01f1583"
          }
        },
        {
          "client_id": "906508954192-09knttdu5p89uljl07rb6ftcsgbg1n20.apps.googleusercontent.com",
          "client_type": 3
        }
      ],
      "api_key": [
        {
          "current_key": "AIzaSyB39ESNkwasdWeRnWb1ryMENjYLRhvNlzM"
        }
      ],
      "services": {
        "analytics_service": {
          "status": 1
        },
        "appinvite_service": {
          "status": 2,
          "other_platform_oauth_client": [
            {
              "client_id": "906508954192-09knttdu5p89uljl07rb6ftcsgbg1n20.apps.googleusercontent.com",
              "client_type": 3
            }
          ]
        },
        "ads_service": {
          "status": 2
        }
      }
    }
  ],
  "configuration_version": "1"
}